Project 3
…
Transform the sales into a unit that is album sales in millions of dollars.

sales <- sales %>% mutate(sales = sales / 1000000)

Keep only album sales from the UK, the US or the World.

sales<-sales[!is.na(sales$country),]

Auto print your final wrangled tibble data frame.

print(as_tibble(sales))

# A tibble: 36 × 8
   artist       title        country  sales released   re_release  label formats
   <chr>        <chr>        <fct>    <dbl> <date>     <chr>       <chr> <chr>  
 1 Taylor Swift Taylor Swift us       5.72  2006-10-24 March 18, … Big … CD, CD…
 2 Taylor Swift Fearless     world   12     2008-11-11 October 27… Big … CD, CD…
 3 Taylor Swift Fearless     us       7.18  2008-11-11 October 27… Big … CD, CD…
 4 Taylor Swift Fearless     uk       0.609 2008-11-11 October 27… Big … CD, CD…
 5 Taylor Swift Speak Now    world    5     2010-10-25 <NA>        Big … CD, CD…
 6 Taylor Swift Speak Now    us       4.69  2010-10-25 <NA>        Big … CD, CD…
 7 Taylor Swift Speak Now    uk       0.169 2010-10-25 <NA>        Big … CD, CD…
 8 Taylor Swift Red          world    6     2012-10-22 <NA>        Big … CD, CD…
 9 Taylor Swift Red          us       4.46  2012-10-22 <NA>        Big … CD, CD…
10 Taylor Swift Red          uk       0.693 2012-10-22 <NA>        Big … CD, CD…
# ℹ 26 more rows
…
[1] 91

print("Lines including the word 'Hello'in Beyoncé songs")

[1] "Lines including the word 'Hello'in Beyoncé songs"

hello_lines_b <- b_lyrics %>%
  filter(str_detect(line, regex("hello", ignore_case = TRUE))) %>%
select(artist_name,song_name, line)
print(hello_lines_b)

# A tibble: 91 × 3
   artist_name song_name                                                   line 
   <chr>       <chr>                                                       <chr>
 1 Beyoncé     "Dreamgirls Medley (The Beyonce Experience Live)"           Hell…
 2 Beyoncé     "Fingertips/Master Blaster (Jammin')/Higher Ground [Live a… Hell…
 3 Beyoncé     "FREEDOM (2016 BET Awards) (Ft. Kendrick Lamar)"            Fell…
 4 Beyoncé     "Hello"                                                     You …
 5 Beyoncé     "Hello"                                                     Hell…
 6 Beyoncé     "Hello"                                                     Hell…
 7 Beyoncé     "Hello"                                                     You …
 8 Beyoncé     "Hello"                                                     Hell…
 9 Beyoncé     "Hello"                                                     Hell…
10 Beyoncé     "Hello"                                                     'Cau…
# ℹ 81 more rows
…
Sort the rows from most frequent to least frequent words.

Only keep the top 25 most frequent words.

b_count<-b_count %>%
  slice(1:25)

Auto print the wrangled tibble data frame.

print(b_count)

# A tibble: 25 × 3
   word          n sentiment
   <chr>     <int> <chr>    
 1 love       1362 positive 
 2 crazy       308 negative 
 3 top         241 positive 
 4 bad         132 negative 
 5 beautiful   131 positive 
 6 whoa        121 positive 
 7 damn        106 negative 
 8 hurt         90 negative 
 9 hard         87 negative 
10 ready        85 positive 
# ℹ 15 more rows
…
Sort the rows from most frequent to least frequent words.

Only keep the top 25 most frequent words.

ts_count<-ts_count %>%
  slice(1:25)

Auto print the wrangled tibble data frame.

print(ts_count)

# A tibble: 25 × 3
   word          n sentiment
   <chr>     <int> <chr>    
 1 love        248 positive 
 2 bad          80 negative 
 3 shake        73 negative 
 4 break        59 negative 
 5 mad          48 negative 
 6 beautiful    46 positive 
 7 smile        45 positive 
 8 hate         44 negative 
 9 fall         43 negative 
10 whoa         36 positive 
# ℹ 15 more rows
…
